<svg width="16" height="17" viewBox="0 0 16 17" fill="none" xmlns="http://www.w3.org/2000/svg">
<path d="M2 11.8333L6 7.83333L8.66667 10.5L14 5.16667" stroke="#7DC932" stroke-width="1.5" stroke-linecap="round" stroke-linejoin="round"/>
<path d="M9.33337 5.16667H14V9.83333" stroke="#7DC932" stroke-width="1.5" stroke-linecap="round" stroke-linejoin="round"/>
</svg>
